{
  "code": 0,
  "data": {
    "data": [
      {
        "apply_postpone_flag": false,
        "apply_satisfaction_flag": false,
        "apply_transfer_flag": false,
        "area_id": -1,
        "assign_at": "2025-03-02 10:36:54.800",
        "assign_organization_id": 4756,
        "attaches": [],
        "can_feedback_flag": false,
        "cgxw_article_ids": null,
        "cgxw_user_id": 0,
        "cgxw_username": "",
        "chosen_organization_id": 4756,
        "comments": null,
        "content": "请问三岔街道现在修建的创新孵化园一期二期三期是安置房吗？这个里面有没有当时拆迁协议的限价商品房？？？这么几年了大家都在等哦，2025年有没有计划分房哦？希望能平台回复，不用电联，谢谢",
        "created_at": "2025-03-01 21:05:58.101",
        "creator": "",
        "deadline": "2025-03-07 23:59:59.999",
        "delete_at": 0,
        "done_at": null,
        "expire_flag": "",
        "ext": null,
        "field_id": 4789,
        "field_name": "",
        "full_org_path_nodes": null,
        "handle_at": "2025-03-03 09:23:49.894",
        "handle_status": "HANDLING",
        "handle_status_real": "HANDLING",
        "has_video": -1,
        "id": 3643363,
        "info_hidden": 0,
        "ip": "221.237.55.87",
        "link": "https://ly.scol.com.cn/thread/details/3643363",
        "organization_name": "",
        "origin_id": 0,
        "passport_id": "",
        "reply_at": "2025-03-03 09:23:49.894",
        "reply_status": "REPLIED",
        "satisfaction": -1,
        "sort_id": 4774,
        "sort_name": "",
        "source": "WAP",
        "title": "拆迁安置",
        "updated_at": "2025-03-03 10:33:47.103",
        "updator": "yuandongshan",
        "username": "",
        "video": null,
        "visible_status": "ENABLED",
        "warn_flag": false,
        "wechat_uid": ""
      },
      {
        "apply_postpone_flag": false,
        "apply_satisfaction_flag": false,
        "apply_transfer_flag": false,
        "area_id": -1,
        "assign_at": "2025-03-02 10:30:25.570",
        "assign_organization_id": 4756,
        "attaches": [],
        "can_feedback_flag": false,
        "cgxw_article_ids": null,
        "cgxw_user_id": 0,
        "cgxw_username": "",
        "chosen_organization_id": 4756,
        "comments": null,
        "content": "尊敬的领导您好 我是东部新区一位高二学生的家长 我想问一下东部新区有没有双休政策 如果有的话多久落实 落实了又会不会有学校让学生签在校申请",
        "created_at": "2025-03-01 20:34:47.093",
        "creator": "",
        "deadline": "2025-03-07 23:59:59.999",
        "delete_at": 0,
        "done_at": null,
        "expire_flag": "",
        "ext": null,
        "field_id": 4795,
        "field_name": "",
        "full_org_path_nodes": null,
        "handle_at": "2025-03-03 09:22:09.592",
        "handle_status": "HANDLING",
        "handle_status_real": "HANDLING",
        "has_video": -1,
        "id": 3643357,
        "info_hidden": 1,
        "ip": "111.9.23.215",
        "link": "https://ly.scol.com.cn/thread/details/3643357",
        "organization_name": "",
        "origin_id": 0,
        "passport_id": "",
        "reply_at": "2025-03-03 09:22:09.592",
        "reply_status": "REPLIED",
        "satisfaction": -1,
        "sort_id": 4774,
        "sort_name": "",
        "source": "WAP",
        "title": "高中双休政策",
        "updated_at": "2025-03-03 10:33:47.138",
        "updator": "yuandongshan",
        "username": "",
        "video": null,
        "visible_status": "ENABLED",
        "warn_flag": false,
        "wechat_uid": ""
      },
      {
        "apply_postpone_flag": false,
        "apply_satisfaction_flag": false,
        "apply_transfer_flag": false,
        "area_id": -1,
        "assign_at": "2025-03-02 10:29:33.826",
        "assign_organization_id": 4756,
        "attaches": [
          "https://wzsccdn.chuanbaoguancha.cn/image/2025/03/01/wzsc1bd61073f0ef823de4ac7bc751c18616.jpg?e=1740974358&token=IAM-9AStepcbvEUim0dBdC5TlqGfykGXfPpdu8Jnm-p_:ouDxIewlPgRpnXK4PC4juKe4pDA=&imageMogr2/auto-orient|watermark/1/image/aHR0cHM6Ly93enNjY2RuLmNodWFuYmFvZ3VhbmNoYS5jbi9sb2dvLnBuZw==/dissolve/100/gravity/Center/dx/20/dy/20/ws/0.5/wst/2",
          "https://wzsccdn.chuanbaoguancha.cn/image/2025/03/01/wzsc7f014c9ec49a55bed4e2ffd7f2491cca.jpg?e=1740974358&token=IAM-9AStepcbvEUim0dBdC5TlqGfykGXfPpdu8Jnm-p_:2wcAYfOLfG7gwSSQxq9Yvg4Q29g=&imageMogr2/auto-orient|watermark/1/image/aHR0cHM6Ly93enNjY2RuLmNodWFuYmFvZ3VhbmNoYS5jbi9sb2dvLnBuZw==/dissolve/100/gravity/Center/dx/20/dy/20/ws/0.5/wst/2",
          "https://wzsccdn.chuanbaoguancha.cn/image/2025/03/01/wzscd7f41f233601b5524245123272cbd483.jpg?e=1740974358&token=IAM-9AStepcbvEUim0dBdC5TlqGfykGXfPpdu8Jnm-p_:395y7Y7xi25j3bu2o5HrtifN1HI=&imageMogr2/auto-orient|watermark/1/image/aHR0cHM6Ly93enNjY2RuLmNodWFuYmFvZ3VhbmNoYS5jbi9sb2dvLnBuZw==/dissolve/100/gravity/Center/dx/20/dy/20/ws/0.5/wst/2",
          "https://wzsccdn.chuanbaoguancha.cn/image/2025/03/01/wzsc69492bd4cd69d61bf2d42e5d9d660e17.jpg?e=1740974358&token=IAM-9AStepcbvEUim0dBdC5TlqGfykGXfPpdu8Jnm-p_:Tp5rTMbNJUadKuUo55C9YBhCmNs=&imageMogr2/auto-orient|watermark/1/image/aHR0cHM6Ly93enNjY2RuLmNodWFuYmFvZ3VhbmNoYS5jbi9sb2dvLnBuZw==/dissolve/100/gravity/Center/dx/20/dy/20/ws/0.5/wst/2"
        ],
        "can_feedback_flag": false,
        "cgxw_article_ids": null,
        "cgxw_user_id": 0,
        "cgxw_username": "",
        "chosen_organization_id": 4756,
        "comments": null,
        "content": "尊敬的上级领导您好！我是成都市东部新区石盘街道谢家祠的村民，现反应x186县道路面破损打滑问题，在这条主路的四周主要出产水果，桃子，枇杷为主，出行交通主要靠这唯一的一条路，现在路面破烂将主要收入的水果都整坏，价格也上不去影响所有家庭的收入，在此也咨询过一些工作人员反馈的是政府部门故意将道路打烂主要目的是为了防止路面打滑，都说人民政府好可是现在路面不单单是打滑还有很多摔车造成的事故，所有人都是怨声载道，请人民政府为人民群众做主，开展为人民群众好的事情，谢谢政府！",
        "created_at": "2025-03-01 20:29:01.106",
        "creator": "",
        "deadline": "2025-03-21 23:59:59.999",
        "delete_at": 0,
        "done_at": null,
        "expire_flag": "",
        "ext": null,
        "field_id": 4787,
        "field_name": "",
        "full_org_path_nodes": null,
        "handle_at": "2025-03-03 09:19:34.431",
        "handle_status": "HANDLING",
        "handle_status_real": "HANDLING",
        "has_video": -1,
        "id": 3643353,
        "info_hidden": 0,
        "ip": "118.116.55.217",
        "link": "https://ly.scol.com.cn/thread/details/3643353",
        "organization_name": "",
        "origin_id": 0,
        "passport_id": "",
        "reply_at": "2025-03-03 09:19:34.431",
        "reply_status": "REPLIED",
        "satisfaction": -1,
        "sort_id": 4777,
        "sort_name": "",
        "source": "WAP",
        "title": "成都东部新区石盘街道x186县道",
        "updated_at": "2025-03-03 10:33:47.211",
        "updator": "yuandongshan",
        "username": "",
        "video": null,
        "visible_status": "ENABLED",
        "warn_flag": false,
        "wechat_uid": ""
      },
      {
        "apply_postpone_flag": false,
        "apply_satisfaction_flag": false,
        "apply_transfer_flag": false,
        "area_id": -1,
        "assign_at": "2025-03-01 16:15:48.660",
        "assign_organization_id": 4756,
        "attaches": [
          "https://wzsccdn.chuanbaoguancha.cn/image/2025/03/01/wzsca7513e6c062233c4eed9c569dd6f2dab.jpeg?e=1740974358&token=IAM-9AStepcbvEUim0dBdC5TlqGfykGXfPpdu8Jnm-p_:BscMhsjrFkx4B4RSNBRleUrEF_4=&imageMogr2/auto-orient|watermark/1/image/aHR0cHM6Ly93enNjY2RuLmNodWFuYmFvZ3VhbmNoYS5jbi9sb2dvLnBuZw==/dissolve/100/gravity/Center/dx/20/dy/20/ws/0.5/wst/2"
        ],
        "can_feedback_flag": false,
        "cgxw_article_ids": null,
        "cgxw_user_id": 0,
        "cgxw_username": "",
        "chosen_organization_id": 4694,
        "comments": null,
        "content": "东部新区玉成街道三益安置房，小区物业公司收取高额的装修保证金，违规处理建筑垃圾，交多少保证金就想方设法扣多少，收费标准没有任何法律依据，并且物业公司私自处理建筑垃圾，破坏生态环境，对小区业主说有第三方公司处理建渣，据安置房业主了解，根本没有正规的具有建筑垃圾清运资质的三方公司，也没有政府批示的相关文件，建筑垃圾都是小区物业公司私自处理。",
        "created_at": "2025-03-01 15:16:55.710",
        "creator": "",
        "deadline": "2025-03-21 23:59:59.999",
        "delete_at": 0,
        "done_at": null,
        "expire_flag": "",
        "ext": null,
        "field_id": 4789,
        "field_name": "",
        "full_org_path_nodes": null,
        "handle_at": "2025-03-03 10:06:43.353",
        "handle_status": "HANDLING",
        "handle_status_real": "HANDLING",
        "has_video": -1,
        "id": 3643250,
        "info_hidden": 0,
        "ip": "117.139.219.175",
        "link": "https://ly.scol.com.cn/thread/details/3643250",
        "organization_name": "",
        "origin_id": 0,
        "passport_id": "",
        "reply_at": "2025-03-03 10:06:43.353",
        "reply_status": "REPLIED",
        "satisfaction": -1,
        "sort_id": 4775,
        "sort_name": "",
        "source": "WAP",
        "title": "物业违规处理建筑垃圾，违规收取装修押金",
        "updated_at": "2025-03-03 10:40:44.270",
        "updator": "yuandongshan",
        "username": "",
        "video": null,
        "visible_status": "ENABLED",
        "warn_flag": false,
        "wechat_uid": ""
      },
      {
        "apply_postpone_flag": false,
        "apply_satisfaction_flag": false,
        "apply_transfer_flag": false,
        "area_id": -1,
        "assign_at": "2025-03-01 14:45:07.002",
        "assign_organization_id": 4756,
        "attaches": [],
        "can_feedback_flag": false,
        "cgxw_article_ids": null,
        "cgxw_user_id": 0,
        "cgxw_username": "",
        "chosen_organization_id": 4756,
        "comments": null,
        "content": "领导您好：我爱人是成都市东部新区人，工作地点在内江，现在单位要求户口由农村户口转成城镇户口，我了解到成都现行的户籍制度是一元化户籍管理制度，但单位要求必须开具证明来证明他是城镇户口，我们已经咨询了当地户籍管理中心，不能提供帮助。请问这个证明可以开吗？如果不能开，可否出具关于户籍一元化管理的情况说明？",
        "created_at": "2025-03-01 14:16:33.028",
        "creator": "",
        "deadline": "2025-03-07 23:59:59.999",
        "delete_at": 0,
        "done_at": null,
        "expire_flag": "",
        "ext": null,
        "field_id": 4797,
        "field_name": "",
        "full_org_path_nodes": null,
        "handle_at": "2025-03-03 09:16:50.320",
        "handle_status": "HANDLING",
        "handle_status_real": "HANDLING",
        "has_video": -1,
        "id": 3643239,
        "info_hidden": 0,
        "ip": "182.149.226.187",
        "link": "https://ly.scol.com.cn/thread/details/3643239",
        "organization_name": "",
        "origin_id": 0,
        "passport_id": "",
        "reply_at": "2025-03-03 09:16:50.320",
        "reply_status": "REPLIED",
        "satisfaction": -1,
        "sort_id": 4774,
        "sort_name": "",
        "source": "PC",
        "title": "成都市户口性质更改证明",
        "updated_at": "2025-03-03 10:32:42.336",
        "updator": "yuandongshan",
        "username": "",
        "video": null,
        "visible_status": "ENABLED",
        "warn_flag": false,
        "wechat_uid": ""
      },
      {
        "apply_postpone_flag": false,
        "apply_satisfaction_flag": false,
        "apply_transfer_flag": false,
        "area_id": -1,
        "assign_at": "2025-03-01 14:48:06.766",
        "assign_organization_id": 4756,
        "attaches": [
          "https://wzsccdn.chuanbaoguancha.cn/image/2025/03/01/wzsce5ae42ffb45406ccce9131cfb86cc3c7.jpg?e=1740974358&token=IAM-9AStepcbvEUim0dBdC5TlqGfykGXfPpdu8Jnm-p_:IG7KaoV0PEg_Lj4LxhgMYrri_bo=&imageMogr2/auto-orient|watermark/1/image/aHR0cHM6Ly93enNjY2RuLmNodWFuYmFvZ3VhbmNoYS5jbi9sb2dvLnBuZw==/dissolve/100/gravity/Center/dx/20/dy/20/ws/0.5/wst/2"
        ],
        "can_feedback_flag": false,
        "cgxw_article_ids": null,
        "cgxw_user_id": 0,
        "cgxw_username": "",
        "chosen_organization_id": 4756,
        "comments": null,
        "content": "东部新区各级领导 ，你们好，我是三岔体育学院工作人员，每天中午开始到晚上很晚，体院学院门口人行道很多占道摆地摊，各种垃圾食品，乌烟瘴气的，严重影响我们出行，我们早上上班，把电瓶车停在规定的位置，下班就找不到车了，他们为了摆摊，把我们的电瓶车推到很远的地方去，而且全部挨得紧，根本无法骑出来，非机动车道，电瓶车道上百米全是摊贩，莫说骑车，走路都难，机动车道上也被他们占用一条道停车，我们骑车就只能骑第二条机动车道，这样不仅影响市容市貌，而且我们这样骑车也危险，烦请城市管理局、市场监督管理局，将这些摊主合理规范，让我们上下班畅通，安全",
        "created_at": "2025-03-01 13:55:22.082",
        "creator": "",
        "deadline": "2025-03-21 23:59:59.999",
        "delete_at": 0,
        "done_at": null,
        "expire_flag": "",
        "ext": null,
        "field_id": 4787,
        "field_name": "",
        "full_org_path_nodes": null,
        "handle_at": "2025-03-03 09:15:04.363",
        "handle_status": "HANDLING",
        "handle_status_real": "HANDLING",
        "has_video": -1,
        "id": 3643229,
        "info_hidden": 0,
        "ip": "182.143.150.130",
        "link": "https://ly.scol.com.cn/thread/details/3643229",
        "organization_name": "",
        "origin_id": 0,
        "passport_id": "",
        "reply_at": "2025-03-03 09:15:04.363",
        "reply_status": "REPLIED",
        "satisfaction": -1,
        "sort_id": 4775,
        "sort_name": "",
        "source": "WECHAT_MP",
        "title": "体院门口小商贩占道经营",
        "updated_at": "2025-03-03 10:32:42.482",
        "updator": "yuandongshan",
        "username": "",
        "video": null,
        "visible_status": "ENABLED",
        "warn_flag": false,
        "wechat_uid": ""
      },
      {
        "apply_postpone_flag": false,
        "apply_satisfaction_flag": false,
        "apply_transfer_flag": false,
        "area_id": -1,
        "assign_at": "2025-03-01 11:24:02.258",
        "assign_organization_id": 4756,
        "attaches": [
          "https://wzsccdn.chuanbaoguancha.cn/image/2025/02/28/wzsc8e7fddc23f84871b3775dc31b7f76d03.jpg?e=1740974358&token=IAM-9AStepcbvEUim0dBdC5TlqGfykGXfPpdu8Jnm-p_:F9wwaPT5pWu76KwmC-b3ZbnLI0o=&imageMogr2/auto-orient|watermark/1/image/aHR0cHM6Ly93enNjY2RuLmNodWFuYmFvZ3VhbmNoYS5jbi9sb2dvLnBuZw==/dissolve/100/gravity/Center/dx/20/dy/20/ws/0.5/wst/2",
          "https://wzsccdn.chuanbaoguancha.cn/image/2025/02/28/wzsc488286b7c65da0a056b39e3d988ed240.jpg?e=1740974358&token=IAM-9AStepcbvEUim0dBdC5TlqGfykGXfPpdu8Jnm-p_:k7P0TToz8OrvOyWwjZCP2fb6cHM=&imageMogr2/auto-orient|watermark/1/image/aHR0cHM6Ly93enNjY2RuLmNodWFuYmFvZ3VhbmNoYS5jbi9sb2dvLnBuZw==/dissolve/100/gravity/Center/dx/20/dy/20/ws/0.5/wst/2",
          "https://wzsccdn.chuanbaoguancha.cn/image/2025/02/28/wzscec98dab2f4203c312dedb34574b9406c.jpg?e=1740974358&token=IAM-9AStepcbvEUim0dBdC5TlqGfykGXfPpdu8Jnm-p_:65Y3F1_K7zPTzobGFVyc7_YCW1I=&imageMogr2/auto-orient|watermark/1/image/aHR0cHM6Ly93enNjY2RuLmNodWFuYmFvZ3VhbmNoYS5jbi9sb2dvLnBuZw==/dissolve/100/gravity/Center/dx/20/dy/20/ws/0.5/wst/2",
          "https://wzsccdn.chuanbaoguancha.cn/image/2025/02/28/wzsc29030aa614644d85e386fc53e9c9d6f2.jpg?e=1740974358&token=IAM-9AStepcbvEUim0dBdC5TlqGfykGXfPpdu8Jnm-p_:-clnUowFGAaKXxrTyu8zuZroUVY=&imageMogr2/auto-orient|watermark/1/image/aHR0cHM6Ly93enNjY2RuLmNodWFuYmFvZ3VhbmNoYS5jbi9sb2dvLnBuZw==/dissolve/100/gravity/Center/dx/20/dy/20/ws/0.5/wst/2",
          "https://wzsccdn.chuanbaoguancha.cn/image/2025/02/28/wzsc9c6d651144c00ad65aad3d3e9bb2f502.jpeg?e=1740974358&token=IAM-9AStepcbvEUim0dBdC5TlqGfykGXfPpdu8Jnm-p_:sAQ-jUrjgnlfB_4CpPVDS8OTha0=&imageMogr2/auto-orient|watermark/1/image/aHR0cHM6Ly93enNjY2RuLmNodWFuYmFvZ3VhbmNoYS5jbi9sb2dvLnBuZw==/dissolve/100/gravity/Center/dx/20/dy/20/ws/0.5/wst/2",
          "https://wzsccdn.chuanbaoguancha.cn/image/2025/02/28/wzsc6a8618ca6287cbf069ac0c20a48e5e25.jpeg?e=1740974358&token=IAM-9AStepcbvEUim0dBdC5TlqGfykGXfPpdu8Jnm-p_:xEZZj3CydBN01qZ_AXvFj9HpmgM=&imageMogr2/auto-orient|watermark/1/image/aHR0cHM6Ly93enNjY2RuLmNodWFuYmFvZ3VhbmNoYS5jbi9sb2dvLnBuZw==/dissolve/100/gravity/Center/dx/20/dy/20/ws/0.5/wst/2",
          "https://wzsccdn.chuanbaoguancha.cn/image/2025/02/28/wzsced9c3bf92fee8cbd888384ee36285931.jpeg?e=1740974358&token=IAM-9AStepcbvEUim0dBdC5TlqGfykGXfPpdu8Jnm-p_:Q_5g365TdFidqEUS93Lkcui2SKY=&imageMogr2/auto-orient|watermark/1/image/aHR0cHM6Ly93enNjY2RuLmNodWFuYmFvZ3VhbmNoYS5jbi9sb2dvLnBuZw==/dissolve/100/gravity/Center/dx/20/dy/20/ws/0.5/wst/2",
          "https://wzsccdn.chuanbaoguancha.cn/image/2025/02/28/wzsc4ed36c4329523067a5aa8646c375a280.jpeg?e=1740974358&token=IAM-9AStepcbvEUim0dBdC5TlqGfykGXfPpdu8Jnm-p_:WXiJB5Ch-H0eXdAsIpV4EcSXnis=&imageMogr2/auto-orient|watermark/1/image/aHR0cHM6Ly93enNjY2RuLmNodWFuYmFvZ3VhbmNoYS5jbi9sb2dvLnBuZw==/dissolve/100/gravity/Center/dx/20/dy/20/ws/0.5/wst/2",
          "https://wzsccdn.chuanbaoguancha.cn/image/2025/02/28/wzscc3224de5b8fe4400035260ee88c556d2.png?e=1740974358&token=IAM-9AStepcbvEUim0dBdC5TlqGfykGXfPpdu8Jnm-p_:b7Y6IAAyh2-QLntffkqZSxkzelo=&imageMogr2/auto-orient|watermark/1/image/aHR0cHM6Ly93enNjY2RuLmNodWFuYmFvZ3VhbmNoYS5jbi9sb2dvLnBuZw==/dissolve/100/gravity/Center/dx/20/dy/20/ws/0.5/wst/2"
        ],
        "can_feedback_flag": false,
        "cgxw_article_ids": null,
        "cgxw_user_id": 0,
        "cgxw_username": "",
        "chosen_organization_id": 4694,
        "comments": null,
        "content": "罗家花园问题反馈汇总\n1 。房屋公摊是否合法合规，公摊面积过大（同样都是安置房，19年平桥安置房套内可使用面积比罗家村面积大很多，平桥安置房建设及公摊参照的哪个文件？罗家村安置房建设及公摊又参照的哪个文件？）\n\t2\t。厨房、卫生间防水及客厅、卧室多处漏水问题怎么处理，怎么安心入住，各处设施是否按标准修建到位（到处漏水、开裂，整改验收谁在牵头验收？是否知晓验收标准？为什么华西和建工差距那么大，建工竟然验收合格了，准予交付？）\n\t3\t。物业收费项目是否合理合法合规（装修管理服务费;按房屋建筑面积0.03元/平方米/天收取,装修管理费收取;30天内装修完的按30天结算，31天60天装修完的按60天结算，超出60天的按实际装修天。手续:\t数结算。\t建筑建渣及废料清运费:及办理装修简装建渣处置费 只贴瓷砖、木地板、墙面白灰铲除(不动墙的实体)，其它均未动，按房屋建筑面积*4元 平米结算。改动飘窗、改动厨房阳台每处在简装费用上加收60元废料处理费。拆除灶台、改动所设施、拆除阳台地砖每处在简装费用上加收80元废料处理，若因此费，拆除客厅推拉窗两边非承重墙体每边加收80元废料处置费。拆除厨房阳台处非承重墙体、剔除厨房墙砖或地面砖、剔除厕所增砖或地面砖，每处在简装费用上加收100元废料处置费:其他未提及到但可拆除区域每处在简装费用上加收50元-100元废料处置费。出墙体位\t(3)、装修成品保护费:以户为单位，按户型面积大小收取，即100㎡以下1000元）。\n4\t。入户门内开要求可以外开（安装的是只能往内开）。\n5\t。消防设备安装不合规，没有验收报告，是否经过消防部门合格验收（未提供消防验收合格报告）。\n6\t。其他房物问题及公共领域问题的整改 （同样是同批次分房的安置房罗家村一期（华西建设），二期（成都建工）他们的交付标准也不一样，请问罗家村安置房验收有没有统一标准？验收标准是什么？）  \n 同时希望草池街道政府履行好1月12号在天府空港草池公众号上发表的感言：继续以群众满意为工作出发点、落脚点，持续做好回迁安置的“后半篇文章”，将群众回迁安置工作落实、落细、落到群众心坎上，用工作实绩提升群众的安全感、获得感和幸福感。",
        "created_at": "2025-02-28 21:27:20.773",
        "creator": "",
        "deadline": "2025-03-21 23:59:59.999",
        "delete_at": 0,
        "done_at": null,
        "expire_flag": "",
        "ext": null,
        "field_id": 4789,
        "field_name": "",
        "full_org_path_nodes": null,
        "handle_at": "2025-03-03 09:39:44.221",
        "handle_status": "HANDLING",
        "handle_status_real": "HANDLING",
        "has_video": 1,
        "id": 3643033,
        "info_hidden": 0,
        "ip": "171.218.194.28",
        "link": "https://ly.scol.com.cn/thread/details/3643033",
        "organization_name": "",
        "origin_id": 0,
        "passport_id": "",
        "reply_at": "2025-03-03 09:39:44.221",
        "reply_status": "REPLIED",
        "satisfaction": -1,
        "sort_id": 4777,
        "sort_name": "",
        "source": "WAP",
        "title": "草池罗家花园安置房问题",
        "updated_at": "2025-03-03 10:35:29.634",
        "updator": "yuandongshan",
        "username": "",
        "video": null,
        "visible_status": "ENABLED",
        "warn_flag": false,
        "wechat_uid": ""
      },
      {
        "apply_postpone_flag": false,
        "apply_satisfaction_flag": false,
        "apply_transfer_flag": false,
        "area_id": -1,
        "assign_at": "2025-03-01 11:39:42.963",
        "assign_organization_id": 4756,
        "attaches": [
          "https://wzsccdn.chuanbaoguancha.cn/image/2025/02/28/wzscb5908d15edb7d72ce86822734cb9442b.jpg?e=1740974358&token=IAM-9AStepcbvEUim0dBdC5TlqGfykGXfPpdu8Jnm-p_:ee8bYGnCI9IDpHl7fYAmIY1UUvo=&imageMogr2/auto-orient|watermark/1/image/aHR0cHM6Ly93enNjY2RuLmNodWFuYmFvZ3VhbmNoYS5jbi9sb2dvLnBuZw==/dissolve/100/gravity/Center/dx/20/dy/20/ws/0.5/wst/2",
          "https://wzsccdn.chuanbaoguancha.cn/image/2025/02/28/wzsc569c000f9ce21d6a3b2b276fd256bf0b.jpg?e=1740974358&token=IAM-9AStepcbvEUim0dBdC5TlqGfykGXfPpdu8Jnm-p_:vat4_uqZYFlt7FVW9RmBCXa2OZc=&imageMogr2/auto-orient|watermark/1/image/aHR0cHM6Ly93enNjY2RuLmNodWFuYmFvZ3VhbmNoYS5jbi9sb2dvLnBuZw==/dissolve/100/gravity/Center/dx/20/dy/20/ws/0.5/wst/2",
          "https://wzsccdn.chuanbaoguancha.cn/image/2025/02/28/wzsc43f845b8fd7cf7a051551ae7eea662e3.jpg?e=1740974358&token=IAM-9AStepcbvEUim0dBdC5TlqGfykGXfPpdu8Jnm-p_:ZWvewi0vO5qCatoKq_Pm5Mpwm7c=&imageMogr2/auto-orient|watermark/1/image/aHR0cHM6Ly93enNjY2RuLmNodWFuYmFvZ3VhbmNoYS5jbi9sb2dvLnBuZw==/dissolve/100/gravity/Center/dx/20/dy/20/ws/0.5/wst/2",
          "https://wzsccdn.chuanbaoguancha.cn/image/2025/02/28/wzsc5d1e3702d0673ade9577367c1df01a8e.jpg?e=1740974358&token=IAM-9AStepcbvEUim0dBdC5TlqGfykGXfPpdu8Jnm-p_:1pq0CgNQoXf807CaP2iBaTNqWY4=&imageMogr2/auto-orient|watermark/1/image/aHR0cHM6Ly93enNjY2RuLmNodWFuYmFvZ3VhbmNoYS5jbi9sb2dvLnBuZw==/dissolve/100/gravity/Center/dx/20/dy/20/ws/0.5/wst/2",
          "https://wzsccdn.chuanbaoguancha.cn/image/2025/02/28/wzsc69edd39eaa1f9b75f2ab7ba2778d36e3.jpeg?e=1740974358&token=IAM-9AStepcbvEUim0dBdC5TlqGfykGXfPpdu8Jnm-p_:HyAxHTOOZJd_Ppg8E79yXnBa5aY=&imageMogr2/auto-orient|watermark/1/image/aHR0cHM6Ly93enNjY2RuLmNodWFuYmFvZ3VhbmNoYS5jbi9sb2dvLnBuZw==/dissolve/100/gravity/Center/dx/20/dy/20/ws/0.5/wst/2",
          "https://wzsccdn.chuanbaoguancha.cn/image/2025/02/28/wzsc5a32e9a999733eafa501d57ef533f565.jpeg?e=1740974358&token=IAM-9AStepcbvEUim0dBdC5TlqGfykGXfPpdu8Jnm-p_:KS1M4IZOWPBGGUl1bnygvHBNg4A=&imageMogr2/auto-orient|watermark/1/image/aHR0cHM6Ly93enNjY2RuLmNodWFuYmFvZ3VhbmNoYS5jbi9sb2dvLnBuZw==/dissolve/100/gravity/Center/dx/20/dy/20/ws/0.5/wst/2",
          "https://wzsccdn.chuanbaoguancha.cn/image/2025/02/28/wzsc83f13a78170c1d929f19dfd06fa962d5.jpeg?e=1740974358&token=IAM-9AStepcbvEUim0dBdC5TlqGfykGXfPpdu8Jnm-p_:VWHxggsmpJdUKPQWSB4ehwmOjHo=&imageMogr2/auto-orient|watermark/1/image/aHR0cHM6Ly93enNjY2RuLmNodWFuYmFvZ3VhbmNoYS5jbi9sb2dvLnBuZw==/dissolve/100/gravity/Center/dx/20/dy/20/ws/0.5/wst/2"
        ],
        "can_feedback_flag": false,
        "cgxw_article_ids": null,
        "cgxw_user_id": 0,
        "cgxw_username": "",
        "chosen_organization_id": 4694,
        "comments": null,
        "content": "尊敬的各位领导您们好！ 我是成都东部新区草池街道的，今年2月草池街道罗家村安置房分房完成，我们也已经领取了新房钥匙。但是房子拿到后有喜也有愁，我现在问题主要是以下几个方面。 1、房屋公摊问题。同样都是安置房，19年平桥安置房套内可使用面积比罗家村面积大多了，请问平桥安置房建设及公摊参照的哪个文件？罗家村安置房建设及公摊又参照的哪个文件？请问罗家村安置房设计单位是哪一家公司？ 2、交付标准问题。同样是同批次分房的安置房罗家村一期（华西建设），二期（成都建工）他们的交付标准也不一样，请问罗家村安置房验收有没有统一标准？验收标准是什么？看了问政四川相关咨询2024年1月16日回复网友安置房2024年春节后分房，可是到时间我们并没有等来分房。2024年3月6日回复网友，罗家村安置房正在验房整改，持续到2025年1月12日终于分房了。这个验房整改时间持续10个月，如今交给我们老百姓的是什么样的房子，到处漏水、开裂，这个整改验收又是谁在牵头验收？他们是否知晓验收标准？为什么华西和建工差距那么大，建工竟然验收合格了，准予交付？ 3、物业服务范围。目前安置房存在问题房屋漏水等问题我们是联系哪个部门为我们处理？是社区、物业、施工单位还是政府？之前是在交房处问题收集处提交了问题，但是我们不知道后续了，打了3次物业电话总算是打通了，物业说找施工单位，施工单位我们业主根本联系不上呀？现在只知道踢皮球。请问罗家花园安置房物业服务标准是什么？哪些是物业的业务范围？又是哪个部门来监督罗家花园安置房物业到底有没有履行物业职责？ 4、装修建渣清运费问题。装修有建渣清运费我们能理解，该交的钱我们肯定会交，但是首先是交付的东西太撇了呀，逼到我们只能把原来的敲了重新弄呀，厕所、厨房水管到处漏水敢用吗？厨房灶台木头做的防火吗？故意交房交那么撇的东西让老百姓用不上，敲了又要单独交建渣费，就是存心到处找钱收吧。 请问各位领导，以上问题有哪些是参照哪些国家、政府及政策型文件，文件名叫什么？我们普通老百姓在哪里可以查阅？ 同时希望草池街道政府履行好1月12号在天府空港草池公众号上发表的感言：继续以群众满意为工作出发点、落脚点，持续做好回迁安置的“后半篇文章”，将群众回迁安置工作落实、落细、落到群众心坎上，用工作实绩提升群众的安全感、获得感和幸福感。",
        "created_at": "2025-02-28 20:44:12.911",
        "creator": "",
        "deadline": "2025-03-21 23:59:59.999",
        "delete_at": 0,
        "done_at": null,
        "expire_flag": "",
        "ext": null,
        "field_id": 4789,
        "field_name": "",
        "full_org_path_nodes": null,
        "handle_at": "2025-03-03 09:38:16.934",
        "handle_status": "HANDLING",
        "handle_status_real": "HANDLING",
        "has_video": 1,
        "id": 3643014,
        "info_hidden": 0,
        "ip": "171.218.194.28",
        "link": "https://ly.scol.com.cn/thread/details/3643014",
        "organization_name": "",
        "origin_id": 0,
        "passport_id": "",
        "reply_at": "2025-03-03 09:38:16.934",
        "reply_status": "REPLIED",
        "satisfaction": -1,
        "sort_id": 4777,
        "sort_name": "",
        "source": "WAP",
        "title": "草池罗家花园安置房房屋质量及公摊面积问题",
        "updated_at": "2025-03-03 10:35:29.572",
        "updator": "yuandongshan",
        "username": "",
        "video": null,
        "visible_status": "ENABLED",
        "warn_flag": false,
        "wechat_uid": ""
      },
      {
        "apply_postpone_flag": false,
        "apply_satisfaction_flag": false,
        "apply_transfer_flag": false,
        "area_id": -1,
        "assign_at": "2025-03-01 11:42:44.737",
        "assign_organization_id": 4756,
        "attaches": [
          "https://wzsccdn.chuanbaoguancha.cn/image/2025/02/28/wzsc42b624f3b0bcde07ff25f6224d31c7fc.jpg?e=1740974358&token=IAM-9AStepcbvEUim0dBdC5TlqGfykGXfPpdu8Jnm-p_:H0PSwrqiGohng_ZBDVMTZ0L3VZk=&imageMogr2/auto-orient|watermark/1/image/aHR0cHM6Ly93enNjY2RuLmNodWFuYmFvZ3VhbmNoYS5jbi9sb2dvLnBuZw==/dissolve/100/gravity/Center/dx/20/dy/20/ws/0.5/wst/2"
        ],
        "can_feedback_flag": false,
        "cgxw_article_ids": null,
        "cgxw_user_id": 0,
        "cgxw_username": "",
        "chosen_organization_id": 4756,
        "comments": null,
        "content": "罗家村安置房质量问题该谁解决，卫生间防水用胶布做的。去接房已经是漏水的了。这质量是怎么验收过关的，消防没验收合格，居然都能交房。厨房里面厨柜台面用木质颗粒板，能炒菜？会不会着火。我要求修建方把厨房卫生间的装修费按政府的招标价，全额退还给我。厨房卫生间里面的装修让施工方全部拆除，清除干净。",
        "created_at": "2025-02-28 20:28:17.945",
        "creator": "",
        "deadline": "2025-03-21 23:59:59.999",
        "delete_at": 0,
        "done_at": null,
        "expire_flag": "",
        "ext": null,
        "field_id": 4789,
        "field_name": "",
        "full_org_path_nodes": null,
        "handle_at": null,
        "handle_status": "NOT_HANDLE",
        "handle_status_real": "NOT_HANDLE",
        "has_video": 1,
        "id": 3643008,
        "info_hidden": 0,
        "ip": "182.143.146.18",
        "link": "https://ly.scol.com.cn/thread/details/3643008",
        "organization_name": "",
        "origin_id": 0,
        "passport_id": "",
        "reply_at": null,
        "reply_status": "NOT_REPLY",
        "satisfaction": -1,
        "sort_id": 4775,
        "sort_name": "",
        "source": "WAP",
        "title": "罗家村安置房",
        "updated_at": "2025-03-01 11:42:44.738",
        "updator": "wangxiaoping",
        "username": "",
        "video": null,
        "visible_status": "ENABLED",
        "warn_flag": false,
        "wechat_uid": ""
      },
      {
        "apply_postpone_flag": false,
        "apply_satisfaction_flag": false,
        "apply_transfer_flag": false,
        "area_id": -1,
        "assign_at": "2025-02-28 18:02:43.075",
        "assign_organization_id": 4756,
        "attaches": [],
        "can_feedback_flag": false,
        "cgxw_article_ids": null,
        "cgxw_user_id": 0,
        "cgxw_username": "",
        "chosen_organization_id": 4717,
        "comments": null,
        "content": "我是芦葭镇仁里村的居民，若房产证遗失需要补办请问应该到哪里去补办，对应的流程有哪些",
        "created_at": "2025-02-28 17:54:07.168",
        "creator": "",
        "deadline": "2025-03-21 23:59:59.999",
        "delete_at": 0,
        "done_at": null,
        "expire_flag": "",
        "ext": null,
        "field_id": 4789,
        "field_name": "",
        "full_org_path_nodes": null,
        "handle_at": "2025-03-03 10:04:17.403",
        "handle_status": "HANDLING",
        "handle_status_real": "HANDLING",
        "has_video": -1,
        "id": 3642938,
        "info_hidden": 0,
        "ip": "111.9.23.70",
        "link": "https://ly.scol.com.cn/thread/details/3642938",
        "organization_name": "",
        "origin_id": 0,
        "passport_id": "",
        "reply_at": "2025-03-03 10:04:17.403",
        "reply_status": "REPLIED",
        "satisfaction": -1,
        "sort_id": 4777,
        "sort_name": "",
        "source": "WAP",
        "title": "房产证补办",
        "updated_at": "2025-03-03 10:40:22.473",
        "updator": "yuandongshan",
        "username": "",
        "video": null,
        "visible_status": "ENABLED",
        "warn_flag": false,
        "wechat_uid": ""
      }
    ],
    "page": 1,
    "size": 10,
    "total": 7968,
    "total_page": 797
  }
}